solid OpenSCAD_Model
  facet normal -0.929787 -0.368099 0
    outer loop
      vertex 22.5549 16.9398 0
      vertex 21.8352 18.7577 2
      vertex 21.8352 18.7577 0
    endloop
  endfacet
  facet normal -0.929787 -0.368099 0
    outer loop
      vertex 21.8352 18.7577 2
      vertex 22.5549 16.9398 0
      vertex 22.5549 16.9398 2
    endloop
  endfacet
  facet normal -0.992112 -0.125357 0
    outer loop
      vertex 22.8 15 0
      vertex 22.5549 16.9398 2
      vertex 22.5549 16.9398 0
    endloop
  endfacet
  facet normal -0.992112 -0.125357 0
    outer loop
      vertex 22.5549 16.9398 2
      vertex 22.8 15 0
      vertex 22.8 15 2
    endloop
  endfacet
  facet normal -0.809028 -0.58777 0
    outer loop
      vertex 21.8352 18.7577 0
      vertex 20.686 20.3395 2
      vertex 20.686 20.3395 0
    endloop
  endfacet
  facet normal -0.809028 -0.58777 0
    outer loop
      vertex 20.686 20.3395 2
      vertex 21.8352 18.7577 0
      vertex 21.8352 18.7577 2
    endloop
  endfacet
  facet normal -0.809023 0.587777 0
    outer loop
      vertex 20.686 9.66053 0
      vertex 21.8352 11.2423 2
      vertex 21.8352 11.2423 0
    endloop
  endfacet
  facet normal -0.809023 0.587777 0
    outer loop
      vertex 21.8352 11.2423 2
      vertex 20.686 9.66053 0
      vertex 20.686 9.66053 2
    endloop
  endfacet
  facet normal 0.308976 -0.95107 0
    outer loop
      vertex 11.6789 22.0577 0
      vertex 13.5384 22.6618 2
      vertex 11.6789 22.0577 2
    endloop
  endfacet
  facet normal 0.308976 -0.95107 0
    outer loop
      vertex 13.5384 22.6618 2
      vertex 11.6789 22.0577 0
      vertex 13.5384 22.6618 0
    endloop
  endfacet
  facet normal 0.535852 -0.844312 0
    outer loop
      vertex 10.0281 21.01 0
      vertex 11.6789 22.0577 2
      vertex 10.0281 21.01 2
    endloop
  endfacet
  facet normal 0.535852 -0.844312 0
    outer loop
      vertex 11.6789 22.0577 2
      vertex 10.0281 21.01 0
      vertex 11.6789 22.0577 0
    endloop
  endfacet
  facet normal -0.637403 -0.77053 0
    outer loop
      vertex 19.1794 21.5858 0
      vertex 20.686 20.3395 2
      vertex 19.1794 21.5858 2
    endloop
  endfacet
  facet normal -0.637403 -0.77053 -0
    outer loop
      vertex 20.686 20.3395 2
      vertex 19.1794 21.5858 0
      vertex 20.686 20.3395 0
    endloop
  endfacet
  facet normal 0.728973 -0.684543 0
    outer loop
      vertex 8.68967 19.5847 2
      vertex 10.0281 21.01 0
      vertex 10.0281 21.01 2
    endloop
  endfacet
  facet normal 0.728973 -0.684543 0
    outer loop
      vertex 10.0281 21.01 0
      vertex 8.68967 19.5847 2
      vertex 8.68967 19.5847 0
    endloop
  endfacet
  facet normal 0.968585 -0.248683 0
    outer loop
      vertex 7.26151 15.9776 2
      vertex 7.74774 17.8714 0
      vertex 7.74774 17.8714 2
    endloop
  endfacet
  facet normal 0.968585 -0.248683 0
    outer loop
      vertex 7.74774 17.8714 0
      vertex 7.26151 15.9776 2
      vertex 7.26151 15.9776 0
    endloop
  endfacet
  facet normal -0.425781 0.904826 0
    outer loop
      vertex 19.1794 8.41424 0
      vertex 17.4103 7.58176 2
      vertex 19.1794 8.41424 2
    endloop
  endfacet
  facet normal -0.425781 0.904826 0
    outer loop
      vertex 17.4103 7.58176 2
      vertex 19.1794 8.41424 0
      vertex 17.4103 7.58176 0
    endloop
  endfacet
  facet normal -0.6374 0.770533 0
    outer loop
      vertex 20.686 9.66053 0
      vertex 19.1794 8.41424 2
      vertex 20.686 9.66053 2
    endloop
  endfacet
  facet normal -0.6374 0.770533 0
    outer loop
      vertex 19.1794 8.41424 2
      vertex 20.686 9.66053 0
      vertex 19.1794 8.41424 0
    endloop
  endfacet
  facet normal -0.187389 0.982286 0
    outer loop
      vertex 17.4103 7.58176 0
      vertex 15.4898 7.21539 2
      vertex 17.4103 7.58176 2
    endloop
  endfacet
  facet normal -0.187389 0.982286 0
    outer loop
      vertex 15.4898 7.21539 2
      vertex 17.4103 7.58176 0
      vertex 15.4898 7.21539 0
    endloop
  endfacet
  facet normal -0.425748 -0.904842 0
    outer loop
      vertex 17.4103 22.4182 0
      vertex 19.1794 21.5858 2
      vertex 17.4103 22.4182 2
    endloop
  endfacet
  facet normal -0.425748 -0.904842 -0
    outer loop
      vertex 19.1794 21.5858 2
      vertex 17.4103 22.4182 0
      vertex 19.1794 21.5858 0
    endloop
  endfacet
  facet normal 0.876299 -0.481768 0
    outer loop
      vertex 7.74774 17.8714 2
      vertex 8.68967 19.5847 0
      vertex 8.68967 19.5847 2
    endloop
  endfacet
  facet normal 0.876299 -0.481768 0
    outer loop
      vertex 8.68967 19.5847 0
      vertex 7.74774 17.8714 2
      vertex 7.74774 17.8714 0
    endloop
  endfacet
  facet normal 0.968585 0.248683 0
    outer loop
      vertex 7.74774 12.1286 2
      vertex 7.26151 14.0224 0
      vertex 7.26151 14.0224 2
    endloop
  endfacet
  facet normal 0.968585 0.248683 0
    outer loop
      vertex 7.26151 14.0224 0
      vertex 7.74774 12.1286 2
      vertex 7.74774 12.1286 0
    endloop
  endfacet
  facet normal -0.929787 0.368099 0
    outer loop
      vertex 21.8352 11.2423 0
      vertex 22.5549 13.0602 2
      vertex 22.5549 13.0602 0
    endloop
  endfacet
  facet normal -0.929787 0.368099 0
    outer loop
      vertex 22.5549 13.0602 2
      vertex 21.8352 11.2423 0
      vertex 21.8352 11.2423 2
    endloop
  endfacet
  facet normal -0.992112 0.125357 0
    outer loop
      vertex 22.5549 13.0602 0
      vertex 22.8 15 2
      vertex 22.8 15 0
    endloop
  endfacet
  facet normal -0.992112 0.125357 0
    outer loop
      vertex 22.8 15 2
      vertex 22.5549 13.0602 0
      vertex 22.5549 13.0602 2
    endloop
  endfacet
  facet normal 0.0628049 -0.998026 0
    outer loop
      vertex 13.5384 22.6618 0
      vertex 15.4898 22.7846 2
      vertex 13.5384 22.6618 2
    endloop
  endfacet
  facet normal 0.0628049 -0.998026 0
    outer loop
      vertex 15.4898 22.7846 2
      vertex 13.5384 22.6618 0
      vertex 15.4898 22.7846 0
    endloop
  endfacet
  facet normal 0.876299 0.481768 0
    outer loop
      vertex 8.68967 10.4153 2
      vertex 7.74774 12.1286 0
      vertex 7.74774 12.1286 2
    endloop
  endfacet
  facet normal 0.876299 0.481768 0
    outer loop
      vertex 7.74774 12.1286 0
      vertex 8.68967 10.4153 2
      vertex 8.68967 10.4153 0
    endloop
  endfacet
  facet normal 0.0627897 0.998027 -0
    outer loop
      vertex 15.4898 7.21539 0
      vertex 13.5384 7.33816 2
      vertex 15.4898 7.21539 2
    endloop
  endfacet
  facet normal 0.0627897 0.998027 0
    outer loop
      vertex 13.5384 7.33816 2
      vertex 15.4898 7.21539 0
      vertex 13.5384 7.33816 0
    endloop
  endfacet
  facet normal 1 -0 0
    outer loop
      vertex 7.26151 14.0224 2
      vertex 7.26151 15.9776 0
      vertex 7.26151 15.9776 2
    endloop
  endfacet
  facet normal 1 0 0
    outer loop
      vertex 7.26151 15.9776 0
      vertex 7.26151 14.0224 2
      vertex 7.26151 14.0224 0
    endloop
  endfacet
  facet normal 0.309018 0.951056 -0
    outer loop
      vertex 13.5384 7.33816 0
      vertex 11.6789 7.94235 2
      vertex 13.5384 7.33816 2
    endloop
  endfacet
  facet normal 0.309018 0.951056 0
    outer loop
      vertex 11.6789 7.94235 2
      vertex 13.5384 7.33816 0
      vertex 11.6789 7.94235 0
    endloop
  endfacet
  facet normal 0.728973 0.684543 0
    outer loop
      vertex 10.0281 8.99 2
      vertex 8.68967 10.4153 0
      vertex 8.68967 10.4153 2
    endloop
  endfacet
  facet normal 0.728973 0.684543 0
    outer loop
      vertex 8.68967 10.4153 0
      vertex 10.0281 8.99 2
      vertex 10.0281 8.99 0
    endloop
  endfacet
  facet normal -0.187404 -0.982283 0
    outer loop
      vertex 15.4898 22.7846 0
      vertex 17.4103 22.4182 2
      vertex 15.4898 22.7846 2
    endloop
  endfacet
  facet normal -0.187404 -0.982283 -0
    outer loop
      vertex 17.4103 22.4182 2
      vertex 15.4898 22.7846 0
      vertex 17.4103 22.4182 0
    endloop
  endfacet
  facet normal 0.535834 0.844323 -0
    outer loop
      vertex 11.6789 7.94235 0
      vertex 10.0281 8.99 2
      vertex 11.6789 7.94235 2
    endloop
  endfacet
  facet normal 0.535834 0.844323 0
    outer loop
      vertex 10.0281 8.99 2
      vertex 11.6789 7.94235 0
      vertex 10.0281 8.99 0
    endloop
  endfacet
  facet normal 0.309018 0.951056 -0
    outer loop
      vertex 38.5384 7.33816 0
      vertex 36.6789 7.94235 2
      vertex 38.5384 7.33816 2
    endloop
  endfacet
  facet normal 0.309018 0.951056 0
    outer loop
      vertex 36.6789 7.94235 2
      vertex 38.5384 7.33816 0
      vertex 36.6789 7.94235 0
    endloop
  endfacet
  facet normal -0.929787 -0.368099 0
    outer loop
      vertex 47.5549 16.9398 0
      vertex 46.8352 18.7577 2
      vertex 46.8352 18.7577 0
    endloop
  endfacet
  facet normal -0.929787 -0.368099 0
    outer loop
      vertex 46.8352 18.7577 2
      vertex 47.5549 16.9398 0
      vertex 47.5549 16.9398 2
    endloop
  endfacet
  facet normal -0.992112 -0.125357 0
    outer loop
      vertex 47.8 15 0
      vertex 47.5549 16.9398 2
      vertex 47.5549 16.9398 0
    endloop
  endfacet
  facet normal -0.992112 -0.125357 0
    outer loop
      vertex 47.5549 16.9398 2
      vertex 47.8 15 0
      vertex 47.8 15 2
    endloop
  endfacet
  facet normal -0.809028 -0.58777 0
    outer loop
      vertex 46.8352 18.7577 0
      vertex 45.686 20.3395 2
      vertex 45.686 20.3395 0
    endloop
  endfacet
  facet normal -0.809028 -0.58777 0
    outer loop
      vertex 45.686 20.3395 2
      vertex 46.8352 18.7577 0
      vertex 46.8352 18.7577 2
    endloop
  endfacet
  facet normal -0.809023 0.587777 0
    outer loop
      vertex 45.686 9.66053 0
      vertex 46.8352 11.2423 2
      vertex 46.8352 11.2423 0
    endloop
  endfacet
  facet normal -0.809023 0.587777 0
    outer loop
      vertex 46.8352 11.2423 2
      vertex 45.686 9.66053 0
      vertex 45.686 9.66053 2
    endloop
  endfacet
  facet normal 0.308976 -0.95107 0
    outer loop
      vertex 36.6789 22.0577 0
      vertex 38.5384 22.6618 2
      vertex 36.6789 22.0577 2
    endloop
  endfacet
  facet normal 0.308976 -0.95107 0
    outer loop
      vertex 38.5384 22.6618 2
      vertex 36.6789 22.0577 0
      vertex 38.5384 22.6618 0
    endloop
  endfacet
  facet normal 0.535852 -0.844312 0
    outer loop
      vertex 35.0281 21.01 0
      vertex 36.6789 22.0577 2
      vertex 35.0281 21.01 2
    endloop
  endfacet
  facet normal 0.535852 -0.844312 0
    outer loop
      vertex 36.6789 22.0577 2
      vertex 35.0281 21.01 0
      vertex 36.6789 22.0577 0
    endloop
  endfacet
  facet normal -0.637403 -0.77053 0
    outer loop
      vertex 44.1794 21.5858 0
      vertex 45.686 20.3395 2
      vertex 44.1794 21.5858 2
    endloop
  endfacet
  facet normal -0.637403 -0.77053 -0
    outer loop
      vertex 45.686 20.3395 2
      vertex 44.1794 21.5858 0
      vertex 45.686 20.3395 0
    endloop
  endfacet
  facet normal 0.72898 -0.684535 0
    outer loop
      vertex 33.6897 19.5847 2
      vertex 35.0281 21.01 0
      vertex 35.0281 21.01 2
    endloop
  endfacet
  facet normal 0.72898 -0.684535 0
    outer loop
      vertex 35.0281 21.01 0
      vertex 33.6897 19.5847 2
      vertex 33.6897 19.5847 0
    endloop
  endfacet
  facet normal -0.425781 0.904826 0
    outer loop
      vertex 44.1794 8.41424 0
      vertex 42.4103 7.58176 2
      vertex 44.1794 8.41424 2
    endloop
  endfacet
  facet normal -0.425781 0.904826 0
    outer loop
      vertex 42.4103 7.58176 2
      vertex 44.1794 8.41424 0
      vertex 42.4103 7.58176 0
    endloop
  endfacet
  facet normal -0.6374 0.770533 0
    outer loop
      vertex 45.686 9.66053 0
      vertex 44.1794 8.41424 2
      vertex 45.686 9.66053 2
    endloop
  endfacet
  facet normal -0.6374 0.770533 0
    outer loop
      vertex 44.1794 8.41424 2
      vertex 45.686 9.66053 0
      vertex 44.1794 8.41424 0
    endloop
  endfacet
  facet normal -0.187389 0.982286 0
    outer loop
      vertex 42.4103 7.58176 0
      vertex 40.4898 7.21539 2
      vertex 42.4103 7.58176 2
    endloop
  endfacet
  facet normal -0.187389 0.982286 0
    outer loop
      vertex 40.4898 7.21539 2
      vertex 42.4103 7.58176 0
      vertex 40.4898 7.21539 0
    endloop
  endfacet
  facet normal -0.929787 0.368099 0
    outer loop
      vertex 46.8352 11.2423 0
      vertex 47.5549 13.0602 2
      vertex 47.5549 13.0602 0
    endloop
  endfacet
  facet normal -0.929787 0.368099 0
    outer loop
      vertex 47.5549 13.0602 2
      vertex 46.8352 11.2423 0
      vertex 46.8352 11.2423 2
    endloop
  endfacet
  facet normal -0.425748 -0.904842 0
    outer loop
      vertex 42.4103 22.4182 0
      vertex 44.1794 21.5858 2
      vertex 42.4103 22.4182 2
    endloop
  endfacet
  facet normal -0.425748 -0.904842 -0
    outer loop
      vertex 44.1794 21.5858 2
      vertex 42.4103 22.4182 0
      vertex 44.1794 21.5858 0
    endloop
  endfacet
  facet normal 0.0628049 -0.998026 0
    outer loop
      vertex 38.5384 22.6618 0
      vertex 40.4898 22.7846 2
      vertex 38.5384 22.6618 2
    endloop
  endfacet
  facet normal 0.0628049 -0.998026 0
    outer loop
      vertex 40.4898 22.7846 2
      vertex 38.5384 22.6618 0
      vertex 40.4898 22.7846 0
    endloop
  endfacet
  facet normal 0.876284 -0.481795 0
    outer loop
      vertex 32.7477 17.8714 2
      vertex 33.6897 19.5847 0
      vertex 33.6897 19.5847 2
    endloop
  endfacet
  facet normal 0.876284 -0.481795 0
    outer loop
      vertex 33.6897 19.5847 0
      vertex 32.7477 17.8714 2
      vertex 32.7477 17.8714 0
    endloop
  endfacet
  facet normal 0.968589 0.248668 0
    outer loop
      vertex 32.7477 12.1286 2
      vertex 32.2615 14.0224 0
      vertex 32.2615 14.0224 2
    endloop
  endfacet
  facet normal 0.968589 0.248668 0
    outer loop
      vertex 32.2615 14.0224 0
      vertex 32.7477 12.1286 2
      vertex 32.7477 12.1286 0
    endloop
  endfacet
  facet normal -0.187404 -0.982283 0
    outer loop
      vertex 40.4898 22.7846 0
      vertex 42.4103 22.4182 2
      vertex 40.4898 22.7846 2
    endloop
  endfacet
  facet normal -0.187404 -0.982283 -0
    outer loop
      vertex 42.4103 22.4182 2
      vertex 40.4898 22.7846 0
      vertex 42.4103 22.4182 0
    endloop
  endfacet
  facet normal 0.72898 0.684535 0
    outer loop
      vertex 35.0281 8.99 2
      vertex 33.6897 10.4153 0
      vertex 33.6897 10.4153 2
    endloop
  endfacet
  facet normal 0.72898 0.684535 0
    outer loop
      vertex 33.6897 10.4153 0
      vertex 35.0281 8.99 2
      vertex 35.0281 8.99 0
    endloop
  endfacet
  facet normal -0.992112 0.125357 0
    outer loop
      vertex 47.5549 13.0602 0
      vertex 47.8 15 2
      vertex 47.8 15 0
    endloop
  endfacet
  facet normal -0.992112 0.125357 0
    outer loop
      vertex 47.8 15 2
      vertex 47.5549 13.0602 0
      vertex 47.5549 13.0602 2
    endloop
  endfacet
  facet normal 0.535834 0.844323 -0
    outer loop
      vertex 36.6789 7.94235 0
      vertex 35.0281 8.99 2
      vertex 36.6789 7.94235 2
    endloop
  endfacet
  facet normal 0.535834 0.844323 0
    outer loop
      vertex 35.0281 8.99 2
      vertex 36.6789 7.94235 0
      vertex 35.0281 8.99 0
    endloop
  endfacet
  facet normal 0.876284 0.481795 0
    outer loop
      vertex 33.6897 10.4153 2
      vertex 32.7477 12.1286 0
      vertex 32.7477 12.1286 2
    endloop
  endfacet
  facet normal 0.876284 0.481795 0
    outer loop
      vertex 32.7477 12.1286 0
      vertex 33.6897 10.4153 2
      vertex 33.6897 10.4153 0
    endloop
  endfacet
  facet normal 0.0627897 0.998027 -0
    outer loop
      vertex 40.4898 7.21539 0
      vertex 38.5384 7.33816 2
      vertex 40.4898 7.21539 2
    endloop
  endfacet
  facet normal 0.0627897 0.998027 0
    outer loop
      vertex 38.5384 7.33816 2
      vertex 40.4898 7.21539 0
      vertex 38.5384 7.33816 0
    endloop
  endfacet
  facet normal 1 -0 0
    outer loop
      vertex 32.2615 14.0224 2
      vertex 32.2615 15.9776 0
      vertex 32.2615 15.9776 2
    endloop
  endfacet
  facet normal 1 0 0
    outer loop
      vertex 32.2615 15.9776 0
      vertex 32.2615 14.0224 2
      vertex 32.2615 14.0224 0
    endloop
  endfacet
  facet normal 0.968589 -0.248668 0
    outer loop
      vertex 32.2615 15.9776 2
      vertex 32.7477 17.8714 0
      vertex 32.7477 17.8714 2
    endloop
  endfacet
  facet normal 0.968589 -0.248668 0
    outer loop
      vertex 32.7477 17.8714 0
      vertex 32.2615 15.9776 2
      vertex 32.2615 15.9776 0
    endloop
  endfacet
  facet normal 0.309018 0.951056 -0
    outer loop
      vertex 63.5384 7.33816 0
      vertex 61.6789 7.94235 2
      vertex 63.5384 7.33816 2
    endloop
  endfacet
  facet normal 0.309018 0.951056 0
    outer loop
      vertex 61.6789 7.94235 2
      vertex 63.5384 7.33816 0
      vertex 61.6789 7.94235 0
    endloop
  endfacet
  facet normal -0.929787 -0.368099 0
    outer loop
      vertex 72.5549 16.9398 0
      vertex 71.8352 18.7577 2
      vertex 71.8352 18.7577 0
    endloop
  endfacet
  facet normal -0.929787 -0.368099 0
    outer loop
      vertex 71.8352 18.7577 2
      vertex 72.5549 16.9398 0
      vertex 72.5549 16.9398 2
    endloop
  endfacet
  facet normal -0.992112 -0.125357 0
    outer loop
      vertex 72.8 15 0
      vertex 72.5549 16.9398 2
      vertex 72.5549 16.9398 0
    endloop
  endfacet
  facet normal -0.992112 -0.125357 0
    outer loop
      vertex 72.5549 16.9398 2
      vertex 72.8 15 0
      vertex 72.8 15 2
    endloop
  endfacet
  facet normal -0.809028 -0.58777 0
    outer loop
      vertex 71.8352 18.7577 0
      vertex 70.686 20.3395 2
      vertex 70.686 20.3395 0
    endloop
  endfacet
  facet normal -0.809028 -0.58777 0
    outer loop
      vertex 70.686 20.3395 2
      vertex 71.8352 18.7577 0
      vertex 71.8352 18.7577 2
    endloop
  endfacet
  facet normal -0.809023 0.587777 0
    outer loop
      vertex 70.686 9.66053 0
      vertex 71.8352 11.2423 2
      vertex 71.8352 11.2423 0
    endloop
  endfacet
  facet normal -0.809023 0.587777 0
    outer loop
      vertex 71.8352 11.2423 2
      vertex 70.686 9.66053 0
      vertex 70.686 9.66053 2
    endloop
  endfacet
  facet normal 0.308976 -0.95107 0
    outer loop
      vertex 61.6789 22.0577 0
      vertex 63.5384 22.6618 2
      vertex 61.6789 22.0577 2
    endloop
  endfacet
  facet normal 0.308976 -0.95107 0
    outer loop
      vertex 63.5384 22.6618 2
      vertex 61.6789 22.0577 0
      vertex 63.5384 22.6618 0
    endloop
  endfacet
  facet normal 0.535852 -0.844312 0
    outer loop
      vertex 60.0281 21.01 0
      vertex 61.6789 22.0577 2
      vertex 60.0281 21.01 2
    endloop
  endfacet
  facet normal 0.535852 -0.844312 0
    outer loop
      vertex 61.6789 22.0577 2
      vertex 60.0281 21.01 0
      vertex 61.6789 22.0577 0
    endloop
  endfacet
  facet normal -0.637428 -0.77051 0
    outer loop
      vertex 69.1795 21.5858 0
      vertex 70.686 20.3395 2
      vertex 69.1795 21.5858 2
    endloop
  endfacet
  facet normal -0.637428 -0.77051 -0
    outer loop
      vertex 70.686 20.3395 2
      vertex 69.1795 21.5858 0
      vertex 70.686 20.3395 0
    endloop
  endfacet
  facet normal 0.72898 -0.684535 0
    outer loop
      vertex 58.6897 19.5847 2
      vertex 60.0281 21.01 0
      vertex 60.0281 21.01 2
    endloop
  endfacet
  facet normal 0.72898 -0.684535 0
    outer loop
      vertex 60.0281 21.01 0
      vertex 58.6897 19.5847 2
      vertex 58.6897 19.5847 0
    endloop
  endfacet
  facet normal -0.425762 0.904835 0
    outer loop
      vertex 69.1795 8.41424 0
      vertex 67.4103 7.58176 2
      vertex 69.1795 8.41424 2
    endloop
  endfacet
  facet normal -0.425762 0.904835 0
    outer loop
      vertex 67.4103 7.58176 2
      vertex 69.1795 8.41424 0
      vertex 67.4103 7.58176 0
    endloop
  endfacet
  facet normal -0.637425 0.770512 0
    outer loop
      vertex 70.686 9.66053 0
      vertex 69.1795 8.41424 2
      vertex 70.686 9.66053 2
    endloop
  endfacet
  facet normal -0.637425 0.770512 0
    outer loop
      vertex 69.1795 8.41424 2
      vertex 70.686 9.66053 0
      vertex 69.1795 8.41424 0
    endloop
  endfacet
  facet normal -0.187389 0.982286 0
    outer loop
      vertex 67.4103 7.58176 0
      vertex 65.4898 7.21539 2
      vertex 67.4103 7.58176 2
    endloop
  endfacet
  facet normal -0.187389 0.982286 0
    outer loop
      vertex 65.4898 7.21539 2
      vertex 67.4103 7.58176 0
      vertex 65.4898 7.21539 0
    endloop
  endfacet
  facet normal -0.425728 -0.904851 0
    outer loop
      vertex 67.4103 22.4182 0
      vertex 69.1795 21.5858 2
      vertex 67.4103 22.4182 2
    endloop
  endfacet
  facet normal -0.425728 -0.904851 -0
    outer loop
      vertex 69.1795 21.5858 2
      vertex 67.4103 22.4182 0
      vertex 69.1795 21.5858 0
    endloop
  endfacet
  facet normal 0.0628049 -0.998026 0
    outer loop
      vertex 63.5384 22.6618 0
      vertex 65.4898 22.7846 2
      vertex 63.5384 22.6618 2
    endloop
  endfacet
  facet normal 0.0628049 -0.998026 0
    outer loop
      vertex 65.4898 22.7846 2
      vertex 63.5384 22.6618 0
      vertex 65.4898 22.7846 0
    endloop
  endfacet
  facet normal 0.876284 -0.481795 0
    outer loop
      vertex 57.7477 17.8714 2
      vertex 58.6897 19.5847 0
      vertex 58.6897 19.5847 2
    endloop
  endfacet
  facet normal 0.876284 -0.481795 0
    outer loop
      vertex 58.6897 19.5847 0
      vertex 57.7477 17.8714 2
      vertex 57.7477 17.8714 0
    endloop
  endfacet
  facet normal 0.968589 0.248668 0
    outer loop
      vertex 57.7477 12.1286 2
      vertex 57.2615 14.0224 0
      vertex 57.2615 14.0224 2
    endloop
  endfacet
  facet normal 0.968589 0.248668 0
    outer loop
      vertex 57.2615 14.0224 0
      vertex 57.7477 12.1286 2
      vertex 57.7477 12.1286 0
    endloop
  endfacet
  facet normal -0.187404 -0.982283 0
    outer loop
      vertex 65.4898 22.7846 0
      vertex 67.4103 22.4182 2
      vertex 65.4898 22.7846 2
    endloop
  endfacet
  facet normal -0.187404 -0.982283 -0
    outer loop
      vertex 67.4103 22.4182 2
      vertex 65.4898 22.7846 0
      vertex 67.4103 22.4182 0
    endloop
  endfacet
  facet normal -0.929787 0.368099 0
    outer loop
      vertex 71.8352 11.2423 0
      vertex 72.5549 13.0602 2
      vertex 72.5549 13.0602 0
    endloop
  endfacet
  facet normal -0.929787 0.368099 0
    outer loop
      vertex 72.5549 13.0602 2
      vertex 71.8352 11.2423 0
      vertex 71.8352 11.2423 2
    endloop
  endfacet
  facet normal 0.72898 0.684535 0
    outer loop
      vertex 60.0281 8.99 2
      vertex 58.6897 10.4153 0
      vertex 58.6897 10.4153 2
    endloop
  endfacet
  facet normal 0.72898 0.684535 0
    outer loop
      vertex 58.6897 10.4153 0
      vertex 60.0281 8.99 2
      vertex 60.0281 8.99 0
    endloop
  endfacet
  facet normal -0.992112 0.125357 0
    outer loop
      vertex 72.5549 13.0602 0
      vertex 72.8 15 2
      vertex 72.8 15 0
    endloop
  endfacet
  facet normal -0.992112 0.125357 0
    outer loop
      vertex 72.8 15 2
      vertex 72.5549 13.0602 0
      vertex 72.5549 13.0602 2
    endloop
  endfacet
  facet normal 0.535834 0.844323 -0
    outer loop
      vertex 61.6789 7.94235 0
      vertex 60.0281 8.99 2
      vertex 61.6789 7.94235 2
    endloop
  endfacet
  facet normal 0.535834 0.844323 0
    outer loop
      vertex 60.0281 8.99 2
      vertex 61.6789 7.94235 0
      vertex 60.0281 8.99 0
    endloop
  endfacet
  facet normal 0.876284 0.481795 0
    outer loop
      vertex 58.6897 10.4153 2
      vertex 57.7477 12.1286 0
      vertex 57.7477 12.1286 2
    endloop
  endfacet
  facet normal 0.876284 0.481795 0
    outer loop
      vertex 57.7477 12.1286 0
      vertex 58.6897 10.4153 2
      vertex 58.6897 10.4153 0
    endloop
  endfacet
  facet normal 0.0627897 0.998027 -0
    outer loop
      vertex 65.4898 7.21539 0
      vertex 63.5384 7.33816 2
      vertex 65.4898 7.21539 2
    endloop
  endfacet
  facet normal 0.0627897 0.998027 0
    outer loop
      vertex 63.5384 7.33816 2
      vertex 65.4898 7.21539 0
      vertex 63.5384 7.33816 0
    endloop
  endfacet
  facet normal 1 -0 0
    outer loop
      vertex 57.2615 14.0224 2
      vertex 57.2615 15.9776 0
      vertex 57.2615 15.9776 2
    endloop
  endfacet
  facet normal 1 0 0
    outer loop
      vertex 57.2615 15.9776 0
      vertex 57.2615 14.0224 2
      vertex 57.2615 14.0224 0
    endloop
  endfacet
  facet normal 0.968589 -0.248668 0
    outer loop
      vertex 57.2615 15.9776 2
      vertex 57.7477 17.8714 0
      vertex 57.7477 17.8714 2
    endloop
  endfacet
  facet normal 0.968589 -0.248668 0
    outer loop
      vertex 57.7477 17.8714 0
      vertex 57.2615 15.9776 2
      vertex 57.2615 15.9776 0
    endloop
  endfacet
  facet normal 1 -0 0
    outer loop
      vertex 80 0 2
      vertex 80 30 0
      vertex 80 30 2
    endloop
  endfacet
  facet normal 1 0 0
    outer loop
      vertex 80 30 0
      vertex 80 0 2
      vertex 80 0 0
    endloop
  endfacet
  facet normal 0 0 1
    outer loop
      vertex 80 30 2
      vertex 72.8 15 2
      vertex 80 0 2
    endloop
  endfacet
  facet normal 0 0 1
    outer loop
      vertex 80 30 2
      vertex 72.5549 16.9398 2
      vertex 72.8 15 2
    endloop
  endfacet
  facet normal 0 0 1
    outer loop
      vertex 80 30 2
      vertex 71.8352 18.7577 2
      vertex 72.5549 16.9398 2
    endloop
  endfacet
  facet normal 0 0 1
    outer loop
      vertex 80 30 2
      vertex 70.686 20.3395 2
      vertex 71.8352 18.7577 2
    endloop
  endfacet
  facet normal 0 0 1
    outer loop
      vertex 80 30 2
      vertex 69.1795 21.5858 2
      vertex 70.686 20.3395 2
    endloop
  endfacet
  facet normal 0 0 1
    outer loop
      vertex 80 30 2
      vertex 67.4103 22.4182 2
      vertex 69.1795 21.5858 2
    endloop
  endfacet
  facet normal 0 0 1
    outer loop
      vertex 80 30 2
      vertex 65.4898 22.7846 2
      vertex 67.4103 22.4182 2
    endloop
  endfacet
  facet normal 0 0 1
    outer loop
      vertex 80 30 2
      vertex 63.5384 22.6618 2
      vertex 65.4898 22.7846 2
    endloop
  endfacet
  facet normal 0 0 1
    outer loop
      vertex 42.4103 22.4182 2
      vertex 63.5384 22.6618 2
      vertex 80 30 2
    endloop
  endfacet
  facet normal 0 0 1
    outer loop
      vertex 57.2615 15.9776 2
      vertex 47.8 15 2
      vertex 57.2615 14.0224 2
    endloop
  endfacet
  facet normal -0 0 1
    outer loop
      vertex 47.5549 16.9398 2
      vertex 57.2615 15.9776 2
      vertex 57.7477 17.8714 2
    endloop
  endfacet
  facet normal -0 0 1
    outer loop
      vertex 46.8352 18.7577 2
      vertex 57.7477 17.8714 2
      vertex 58.6897 19.5847 2
    endloop
  endfacet
  facet normal -0 0 1
    outer loop
      vertex 45.686 20.3395 2
      vertex 58.6897 19.5847 2
      vertex 60.0281 21.01 2
    endloop
  endfacet
  facet normal -0 0 1
    outer loop
      vertex 44.1794 21.5858 2
      vertex 60.0281 21.01 2
      vertex 61.6789 22.0577 2
    endloop
  endfacet
  facet normal 0 0 1
    outer loop
      vertex 57.2615 15.9776 2
      vertex 47.5549 16.9398 2
      vertex 47.8 15 2
    endloop
  endfacet
  facet normal 0 0 1
    outer loop
      vertex 63.5384 22.6618 2
      vertex 42.4103 22.4182 2
      vertex 61.6789 22.0577 2
    endloop
  endfacet
  facet normal 0 0 1
    outer loop
      vertex 57.7477 17.8714 2
      vertex 46.8352 18.7577 2
      vertex 47.5549 16.9398 2
    endloop
  endfacet
  facet normal 0 0 1
    outer loop
      vertex 58.6897 19.5847 2
      vertex 45.686 20.3395 2
      vertex 46.8352 18.7577 2
    endloop
  endfacet
  facet normal 0 0 1
    outer loop
      vertex 60.0281 21.01 2
      vertex 44.1794 21.5858 2
      vertex 45.686 20.3395 2
    endloop
  endfacet
  facet normal 0 0 1
    outer loop
      vertex 61.6789 22.0577 2
      vertex 42.4103 22.4182 2
      vertex 44.1794 21.5858 2
    endloop
  endfacet
  facet normal 0 0 1
    outer loop
      vertex 80 30 2
      vertex 40.4898 22.7846 2
      vertex 42.4103 22.4182 2
    endloop
  endfacet
  facet normal -0 0 1
    outer loop
      vertex 0 30 2
      vertex 40.4898 22.7846 2
      vertex 80 30 2
    endloop
  endfacet
  facet normal 0 0 1
    outer loop
      vertex 32.2615 15.9776 2
      vertex 22.8 15 2
      vertex 32.2615 14.0224 2
    endloop
  endfacet
  facet normal -0 0 1
    outer loop
      vertex 22.5549 16.9398 2
      vertex 32.2615 15.9776 2
      vertex 32.7477 17.8714 2
    endloop
  endfacet
  facet normal -0 0 1
    outer loop
      vertex 21.8352 18.7577 2
      vertex 32.7477 17.8714 2
      vertex 33.6897 19.5847 2
    endloop
  endfacet
  facet normal -0 0 1
    outer loop
      vertex 20.686 20.3395 2
      vertex 33.6897 19.5847 2
      vertex 35.0281 21.01 2
    endloop
  endfacet
  facet normal -0 0 1
    outer loop
      vertex 19.1794 21.5858 2
      vertex 35.0281 21.01 2
      vertex 36.6789 22.0577 2
    endloop
  endfacet
  facet normal 0 0 1
    outer loop
      vertex 32.2615 15.9776 2
      vertex 22.5549 16.9398 2
      vertex 22.8 15 2
    endloop
  endfacet
  facet normal 0 0 1
    outer loop
      vertex 32.7477 17.8714 2
      vertex 21.8352 18.7577 2
      vertex 22.5549 16.9398 2
    endloop
  endfacet
  facet normal -0 0 1
    outer loop
      vertex 17.4103 22.4182 2
      vertex 36.6789 22.0577 2
      vertex 38.5384 22.6618 2
    endloop
  endfacet
  facet normal 0 0 1
    outer loop
      vertex 33.6897 19.5847 2
      vertex 20.686 20.3395 2
      vertex 21.8352 18.7577 2
    endloop
  endfacet
  facet normal 0 0 1
    outer loop
      vertex 40.4898 22.7846 2
      vertex 0 30 2
      vertex 38.5384 22.6618 2
    endloop
  endfacet
  facet normal 0 0 1
    outer loop
      vertex 35.0281 21.01 2
      vertex 19.1794 21.5858 2
      vertex 20.686 20.3395 2
    endloop
  endfacet
  facet normal 0 0 1
    outer loop
      vertex 36.6789 22.0577 2
      vertex 17.4103 22.4182 2
      vertex 19.1794 21.5858 2
    endloop
  endfacet
  facet normal 0 0 1
    outer loop
      vertex 38.5384 22.6618 2
      vertex 0 30 2
      vertex 17.4103 22.4182 2
    endloop
  endfacet
  facet normal 0 0 1
    outer loop
      vertex 17.4103 22.4182 2
      vertex 0 30 2
      vertex 15.4898 22.7846 2
    endloop
  endfacet
  facet normal 0 0 1
    outer loop
      vertex 7.26151 15.9776 2
      vertex 0 30 2
      vertex 7.26151 14.0224 2
    endloop
  endfacet
  facet normal 0 0 1
    outer loop
      vertex 7.74774 17.8714 2
      vertex 0 30 2
      vertex 7.26151 15.9776 2
    endloop
  endfacet
  facet normal 0 0 1
    outer loop
      vertex 8.68967 19.5847 2
      vertex 0 30 2
      vertex 7.74774 17.8714 2
    endloop
  endfacet
  facet normal 0 0 1
    outer loop
      vertex 10.0281 21.01 2
      vertex 0 30 2
      vertex 8.68967 19.5847 2
    endloop
  endfacet
  facet normal 0 0 1
    outer loop
      vertex 11.6789 22.0577 2
      vertex 0 30 2
      vertex 10.0281 21.01 2
    endloop
  endfacet
  facet normal 0 0 1
    outer loop
      vertex 13.5384 22.6618 2
      vertex 0 30 2
      vertex 11.6789 22.0577 2
    endloop
  endfacet
  facet normal 0 0 1
    outer loop
      vertex 15.4898 22.7846 2
      vertex 0 30 2
      vertex 13.5384 22.6618 2
    endloop
  endfacet
  facet normal -0 0 1
    outer loop
      vertex 72.5549 13.0602 2
      vertex 80 0 2
      vertex 72.8 15 2
    endloop
  endfacet
  facet normal -0 0 1
    outer loop
      vertex 71.8352 11.2423 2
      vertex 80 0 2
      vertex 72.5549 13.0602 2
    endloop
  endfacet
  facet normal -0 0 1
    outer loop
      vertex 70.686 9.66053 2
      vertex 80 0 2
      vertex 71.8352 11.2423 2
    endloop
  endfacet
  facet normal -0 0 1
    outer loop
      vertex 69.1795 8.41424 2
      vertex 80 0 2
      vertex 70.686 9.66053 2
    endloop
  endfacet
  facet normal -0 0 1
    outer loop
      vertex 67.4103 7.58176 2
      vertex 80 0 2
      vertex 69.1795 8.41424 2
    endloop
  endfacet
  facet normal -0 0 1
    outer loop
      vertex 65.4898 7.21539 2
      vertex 80 0 2
      vertex 67.4103 7.58176 2
    endloop
  endfacet
  facet normal 0 0 1
    outer loop
      vertex 63.5384 7.33816 2
      vertex 80 0 2
      vertex 65.4898 7.21539 2
    endloop
  endfacet
  facet normal -0 0 1
    outer loop
      vertex 42.4103 7.58176 2
      vertex 63.5384 7.33816 2
      vertex 61.6789 7.94235 2
    endloop
  endfacet
  facet normal 0 0 1
    outer loop
      vertex 47.5549 13.0602 2
      vertex 57.2615 14.0224 2
      vertex 47.8 15 2
    endloop
  endfacet
  facet normal 0 0 1
    outer loop
      vertex 57.2615 14.0224 2
      vertex 47.5549 13.0602 2
      vertex 57.7477 12.1286 2
    endloop
  endfacet
  facet normal 0 0 1
    outer loop
      vertex 46.8352 11.2423 2
      vertex 57.7477 12.1286 2
      vertex 47.5549 13.0602 2
    endloop
  endfacet
  facet normal 0 0 1
    outer loop
      vertex 57.7477 12.1286 2
      vertex 46.8352 11.2423 2
      vertex 58.6897 10.4153 2
    endloop
  endfacet
  facet normal 0 0 1
    outer loop
      vertex 45.686 9.66053 2
      vertex 58.6897 10.4153 2
      vertex 46.8352 11.2423 2
    endloop
  endfacet
  facet normal 0 0 1
    outer loop
      vertex 58.6897 10.4153 2
      vertex 45.686 9.66053 2
      vertex 60.0281 8.99 2
    endloop
  endfacet
  facet normal 0 0 1
    outer loop
      vertex 44.1794 8.41424 2
      vertex 60.0281 8.99 2
      vertex 45.686 9.66053 2
    endloop
  endfacet
  facet normal 0 0 1
    outer loop
      vertex 60.0281 8.99 2
      vertex 44.1794 8.41424 2
      vertex 61.6789 7.94235 2
    endloop
  endfacet
  facet normal 0 0 1
    outer loop
      vertex 42.4103 7.58176 2
      vertex 61.6789 7.94235 2
      vertex 44.1794 8.41424 2
    endloop
  endfacet
  facet normal 0 0 1
    outer loop
      vertex 63.5384 7.33816 2
      vertex 42.4103 7.58176 2
      vertex 80 0 2
    endloop
  endfacet
  facet normal -0 0 1
    outer loop
      vertex 40.4898 7.21539 2
      vertex 80 0 2
      vertex 42.4103 7.58176 2
    endloop
  endfacet
  facet normal 0 0 1
    outer loop
      vertex 0 0 2
      vertex 40.4898 7.21539 2
      vertex 38.5384 7.33816 2
    endloop
  endfacet
  facet normal 0 0 1
    outer loop
      vertex 22.5549 13.0602 2
      vertex 32.2615 14.0224 2
      vertex 22.8 15 2
    endloop
  endfacet
  facet normal 0 0 1
    outer loop
      vertex 32.2615 14.0224 2
      vertex 22.5549 13.0602 2
      vertex 32.7477 12.1286 2
    endloop
  endfacet
  facet normal 0 0 1
    outer loop
      vertex 21.8352 11.2423 2
      vertex 32.7477 12.1286 2
      vertex 22.5549 13.0602 2
    endloop
  endfacet
  facet normal 0 0 1
    outer loop
      vertex 32.7477 12.1286 2
      vertex 21.8352 11.2423 2
      vertex 33.6897 10.4153 2
    endloop
  endfacet
  facet normal 0 0 1
    outer loop
      vertex 20.686 9.66053 2
      vertex 33.6897 10.4153 2
      vertex 21.8352 11.2423 2
    endloop
  endfacet
  facet normal 0 0 1
    outer loop
      vertex 33.6897 10.4153 2
      vertex 20.686 9.66053 2
      vertex 35.0281 8.99 2
    endloop
  endfacet
  facet normal 0 0 1
    outer loop
      vertex 19.1794 8.41424 2
      vertex 35.0281 8.99 2
      vertex 20.686 9.66053 2
    endloop
  endfacet
  facet normal 0 0 1
    outer loop
      vertex 35.0281 8.99 2
      vertex 19.1794 8.41424 2
      vertex 36.6789 7.94235 2
    endloop
  endfacet
  facet normal 0 0 1
    outer loop
      vertex 17.4103 7.58176 2
      vertex 36.6789 7.94235 2
      vertex 19.1794 8.41424 2
    endloop
  endfacet
  facet normal 0 0 1
    outer loop
      vertex 36.6789 7.94235 2
      vertex 17.4103 7.58176 2
      vertex 38.5384 7.33816 2
    endloop
  endfacet
  facet normal 0 0 1
    outer loop
      vertex 0 0 2
      vertex 38.5384 7.33816 2
      vertex 17.4103 7.58176 2
    endloop
  endfacet
  facet normal 0 0 1
    outer loop
      vertex 0 0 2
      vertex 17.4103 7.58176 2
      vertex 15.4898 7.21539 2
    endloop
  endfacet
  facet normal 0 0 1
    outer loop
      vertex 0 0 2
      vertex 15.4898 7.21539 2
      vertex 13.5384 7.33816 2
    endloop
  endfacet
  facet normal 0 0 1
    outer loop
      vertex 0 0 2
      vertex 7.26151 14.0224 2
      vertex 0 30 2
    endloop
  endfacet
  facet normal 0 0 1
    outer loop
      vertex 40.4898 7.21539 2
      vertex 0 0 2
      vertex 80 0 2
    endloop
  endfacet
  facet normal 0 0 1
    outer loop
      vertex 11.6789 7.94235 2
      vertex 0 0 2
      vertex 13.5384 7.33816 2
    endloop
  endfacet
  facet normal 0 0 1
    outer loop
      vertex 10.0281 8.99 2
      vertex 0 0 2
      vertex 11.6789 7.94235 2
    endloop
  endfacet
  facet normal 0 0 1
    outer loop
      vertex 8.68967 10.4153 2
      vertex 0 0 2
      vertex 10.0281 8.99 2
    endloop
  endfacet
  facet normal 0 0 1
    outer loop
      vertex 7.74774 12.1286 2
      vertex 0 0 2
      vertex 8.68967 10.4153 2
    endloop
  endfacet
  facet normal 0 0 1
    outer loop
      vertex 7.26151 14.0224 2
      vertex 0 0 2
      vertex 7.74774 12.1286 2
    endloop
  endfacet
  facet normal 0 0 -1
    outer loop
      vertex 80 0 0
      vertex 72.8 15 0
      vertex 80 30 0
    endloop
  endfacet
  facet normal 0 0 -1
    outer loop
      vertex 80 0 0
      vertex 72.5549 13.0602 0
      vertex 72.8 15 0
    endloop
  endfacet
  facet normal 0 0 -1
    outer loop
      vertex 80 0 0
      vertex 71.8352 11.2423 0
      vertex 72.5549 13.0602 0
    endloop
  endfacet
  facet normal 0 0 -1
    outer loop
      vertex 80 0 0
      vertex 70.686 9.66053 0
      vertex 71.8352 11.2423 0
    endloop
  endfacet
  facet normal 0 0 -1
    outer loop
      vertex 80 0 0
      vertex 69.1795 8.41424 0
      vertex 70.686 9.66053 0
    endloop
  endfacet
  facet normal 0 0 -1
    outer loop
      vertex 80 0 0
      vertex 67.4103 7.58176 0
      vertex 69.1795 8.41424 0
    endloop
  endfacet
  facet normal 0 0 -1
    outer loop
      vertex 80 0 0
      vertex 65.4898 7.21539 0
      vertex 67.4103 7.58176 0
    endloop
  endfacet
  facet normal 0 0 -1
    outer loop
      vertex 80 0 0
      vertex 63.5384 7.33816 0
      vertex 65.4898 7.21539 0
    endloop
  endfacet
  facet normal 0 0 -1
    outer loop
      vertex 42.4103 7.58176 0
      vertex 63.5384 7.33816 0
      vertex 80 0 0
    endloop
  endfacet
  facet normal 0 0 -1
    outer loop
      vertex 57.2615 14.0224 0
      vertex 47.8 15 0
      vertex 57.2615 15.9776 0
    endloop
  endfacet
  facet normal 0 0 -1
    outer loop
      vertex 47.5549 13.0602 0
      vertex 57.2615 14.0224 0
      vertex 57.7477 12.1286 0
    endloop
  endfacet
  facet normal 0 0 -1
    outer loop
      vertex 46.8352 11.2423 0
      vertex 57.7477 12.1286 0
      vertex 58.6897 10.4153 0
    endloop
  endfacet
  facet normal 0 0 -1
    outer loop
      vertex 45.686 9.66053 0
      vertex 58.6897 10.4153 0
      vertex 60.0281 8.99 0
    endloop
  endfacet
  facet normal 0 0 -1
    outer loop
      vertex 44.1794 8.41424 0
      vertex 60.0281 8.99 0
      vertex 61.6789 7.94235 0
    endloop
  endfacet
  facet normal -0 0 -1
    outer loop
      vertex 57.2615 14.0224 0
      vertex 47.5549 13.0602 0
      vertex 47.8 15 0
    endloop
  endfacet
  facet normal 0 0 -1
    outer loop
      vertex 63.5384 7.33816 0
      vertex 42.4103 7.58176 0
      vertex 61.6789 7.94235 0
    endloop
  endfacet
  facet normal -0 0 -1
    outer loop
      vertex 57.7477 12.1286 0
      vertex 46.8352 11.2423 0
      vertex 47.5549 13.0602 0
    endloop
  endfacet
  facet normal -0 0 -1
    outer loop
      vertex 58.6897 10.4153 0
      vertex 45.686 9.66053 0
      vertex 46.8352 11.2423 0
    endloop
  endfacet
  facet normal -0 0 -1
    outer loop
      vertex 60.0281 8.99 0
      vertex 44.1794 8.41424 0
      vertex 45.686 9.66053 0
    endloop
  endfacet
  facet normal -0 0 -1
    outer loop
      vertex 61.6789 7.94235 0
      vertex 42.4103 7.58176 0
      vertex 44.1794 8.41424 0
    endloop
  endfacet
  facet normal 0 0 -1
    outer loop
      vertex 80 0 0
      vertex 40.4898 7.21539 0
      vertex 42.4103 7.58176 0
    endloop
  endfacet
  facet normal 0 0 -1
    outer loop
      vertex 0 0 0
      vertex 40.4898 7.21539 0
      vertex 80 0 0
    endloop
  endfacet
  facet normal 0 0 -1
    outer loop
      vertex 32.2615 14.0224 0
      vertex 22.8 15 0
      vertex 32.2615 15.9776 0
    endloop
  endfacet
  facet normal 0 0 -1
    outer loop
      vertex 22.5549 13.0602 0
      vertex 32.2615 14.0224 0
      vertex 32.7477 12.1286 0
    endloop
  endfacet
  facet normal 0 0 -1
    outer loop
      vertex 21.8352 11.2423 0
      vertex 32.7477 12.1286 0
      vertex 33.6897 10.4153 0
    endloop
  endfacet
  facet normal 0 0 -1
    outer loop
      vertex 20.686 9.66053 0
      vertex 33.6897 10.4153 0
      vertex 35.0281 8.99 0
    endloop
  endfacet
  facet normal 0 0 -1
    outer loop
      vertex 19.1794 8.41424 0
      vertex 35.0281 8.99 0
      vertex 36.6789 7.94235 0
    endloop
  endfacet
  facet normal -0 0 -1
    outer loop
      vertex 32.2615 14.0224 0
      vertex 22.5549 13.0602 0
      vertex 22.8 15 0
    endloop
  endfacet
  facet normal -0 0 -1
    outer loop
      vertex 32.7477 12.1286 0
      vertex 21.8352 11.2423 0
      vertex 22.5549 13.0602 0
    endloop
  endfacet
  facet normal 0 0 -1
    outer loop
      vertex 17.4103 7.58176 0
      vertex 36.6789 7.94235 0
      vertex 38.5384 7.33816 0
    endloop
  endfacet
  facet normal -0 0 -1
    outer loop
      vertex 33.6897 10.4153 0
      vertex 20.686 9.66053 0
      vertex 21.8352 11.2423 0
    endloop
  endfacet
  facet normal -0 0 -1
    outer loop
      vertex 40.4898 7.21539 0
      vertex 0 0 0
      vertex 38.5384 7.33816 0
    endloop
  endfacet
  facet normal -0 0 -1
    outer loop
      vertex 35.0281 8.99 0
      vertex 19.1794 8.41424 0
      vertex 20.686 9.66053 0
    endloop
  endfacet
  facet normal -0 0 -1
    outer loop
      vertex 36.6789 7.94235 0
      vertex 17.4103 7.58176 0
      vertex 19.1794 8.41424 0
    endloop
  endfacet
  facet normal -0 0 -1
    outer loop
      vertex 38.5384 7.33816 0
      vertex 0 0 0
      vertex 17.4103 7.58176 0
    endloop
  endfacet
  facet normal 0 0 -1
    outer loop
      vertex 17.4103 7.58176 0
      vertex 0 0 0
      vertex 15.4898 7.21539 0
    endloop
  endfacet
  facet normal -0 0 -1
    outer loop
      vertex 7.26151 14.0224 0
      vertex 0 0 0
      vertex 7.26151 15.9776 0
    endloop
  endfacet
  facet normal -0 0 -1
    outer loop
      vertex 7.74774 12.1286 0
      vertex 0 0 0
      vertex 7.26151 14.0224 0
    endloop
  endfacet
  facet normal -0 0 -1
    outer loop
      vertex 8.68967 10.4153 0
      vertex 0 0 0
      vertex 7.74774 12.1286 0
    endloop
  endfacet
  facet normal -0 0 -1
    outer loop
      vertex 10.0281 8.99 0
      vertex 0 0 0
      vertex 8.68967 10.4153 0
    endloop
  endfacet
  facet normal -0 0 -1
    outer loop
      vertex 11.6789 7.94235 0
      vertex 0 0 0
      vertex 10.0281 8.99 0
    endloop
  endfacet
  facet normal -0 0 -1
    outer loop
      vertex 13.5384 7.33816 0
      vertex 0 0 0
      vertex 11.6789 7.94235 0
    endloop
  endfacet
  facet normal -0 0 -1
    outer loop
      vertex 15.4898 7.21539 0
      vertex 0 0 0
      vertex 13.5384 7.33816 0
    endloop
  endfacet
  facet normal 0 0 -1
    outer loop
      vertex 72.5549 16.9398 0
      vertex 80 30 0
      vertex 72.8 15 0
    endloop
  endfacet
  facet normal 0 0 -1
    outer loop
      vertex 71.8352 18.7577 0
      vertex 80 30 0
      vertex 72.5549 16.9398 0
    endloop
  endfacet
  facet normal 0 0 -1
    outer loop
      vertex 70.686 20.3395 0
      vertex 80 30 0
      vertex 71.8352 18.7577 0
    endloop
  endfacet
  facet normal 0 0 -1
    outer loop
      vertex 69.1795 21.5858 0
      vertex 80 30 0
      vertex 70.686 20.3395 0
    endloop
  endfacet
  facet normal 0 0 -1
    outer loop
      vertex 67.4103 22.4182 0
      vertex 80 30 0
      vertex 69.1795 21.5858 0
    endloop
  endfacet
  facet normal 0 0 -1
    outer loop
      vertex 65.4898 22.7846 0
      vertex 80 30 0
      vertex 67.4103 22.4182 0
    endloop
  endfacet
  facet normal 0 0 -1
    outer loop
      vertex 63.5384 22.6618 0
      vertex 80 30 0
      vertex 65.4898 22.7846 0
    endloop
  endfacet
  facet normal 0 0 -1
    outer loop
      vertex 42.4103 22.4182 0
      vertex 63.5384 22.6618 0
      vertex 61.6789 22.0577 0
    endloop
  endfacet
  facet normal 0 0 -1
    outer loop
      vertex 47.5549 16.9398 0
      vertex 57.2615 15.9776 0
      vertex 47.8 15 0
    endloop
  endfacet
  facet normal 0 0 -1
    outer loop
      vertex 57.2615 15.9776 0
      vertex 47.5549 16.9398 0
      vertex 57.7477 17.8714 0
    endloop
  endfacet
  facet normal 0 0 -1
    outer loop
      vertex 46.8352 18.7577 0
      vertex 57.7477 17.8714 0
      vertex 47.5549 16.9398 0
    endloop
  endfacet
  facet normal 0 0 -1
    outer loop
      vertex 57.7477 17.8714 0
      vertex 46.8352 18.7577 0
      vertex 58.6897 19.5847 0
    endloop
  endfacet
  facet normal 0 0 -1
    outer loop
      vertex 45.686 20.3395 0
      vertex 58.6897 19.5847 0
      vertex 46.8352 18.7577 0
    endloop
  endfacet
  facet normal 0 0 -1
    outer loop
      vertex 58.6897 19.5847 0
      vertex 45.686 20.3395 0
      vertex 60.0281 21.01 0
    endloop
  endfacet
  facet normal 0 0 -1
    outer loop
      vertex 44.1794 21.5858 0
      vertex 60.0281 21.01 0
      vertex 45.686 20.3395 0
    endloop
  endfacet
  facet normal 0 0 -1
    outer loop
      vertex 60.0281 21.01 0
      vertex 44.1794 21.5858 0
      vertex 61.6789 22.0577 0
    endloop
  endfacet
  facet normal 0 0 -1
    outer loop
      vertex 42.4103 22.4182 0
      vertex 61.6789 22.0577 0
      vertex 44.1794 21.5858 0
    endloop
  endfacet
  facet normal -0 0 -1
    outer loop
      vertex 63.5384 22.6618 0
      vertex 42.4103 22.4182 0
      vertex 80 30 0
    endloop
  endfacet
  facet normal 0 0 -1
    outer loop
      vertex 40.4898 22.7846 0
      vertex 80 30 0
      vertex 42.4103 22.4182 0
    endloop
  endfacet
  facet normal 0 0 -1
    outer loop
      vertex 0 30 0
      vertex 40.4898 22.7846 0
      vertex 38.5384 22.6618 0
    endloop
  endfacet
  facet normal 0 0 -1
    outer loop
      vertex 22.5549 16.9398 0
      vertex 32.2615 15.9776 0
      vertex 22.8 15 0
    endloop
  endfacet
  facet normal 0 0 -1
    outer loop
      vertex 32.2615 15.9776 0
      vertex 22.5549 16.9398 0
      vertex 32.7477 17.8714 0
    endloop
  endfacet
  facet normal 0 0 -1
    outer loop
      vertex 21.8352 18.7577 0
      vertex 32.7477 17.8714 0
      vertex 22.5549 16.9398 0
    endloop
  endfacet
  facet normal 0 0 -1
    outer loop
      vertex 32.7477 17.8714 0
      vertex 21.8352 18.7577 0
      vertex 33.6897 19.5847 0
    endloop
  endfacet
  facet normal 0 0 -1
    outer loop
      vertex 20.686 20.3395 0
      vertex 33.6897 19.5847 0
      vertex 21.8352 18.7577 0
    endloop
  endfacet
  facet normal 0 0 -1
    outer loop
      vertex 33.6897 19.5847 0
      vertex 20.686 20.3395 0
      vertex 35.0281 21.01 0
    endloop
  endfacet
  facet normal 0 0 -1
    outer loop
      vertex 19.1794 21.5858 0
      vertex 35.0281 21.01 0
      vertex 20.686 20.3395 0
    endloop
  endfacet
  facet normal 0 0 -1
    outer loop
      vertex 35.0281 21.01 0
      vertex 19.1794 21.5858 0
      vertex 36.6789 22.0577 0
    endloop
  endfacet
  facet normal 0 0 -1
    outer loop
      vertex 17.4103 22.4182 0
      vertex 36.6789 22.0577 0
      vertex 19.1794 21.5858 0
    endloop
  endfacet
  facet normal 0 0 -1
    outer loop
      vertex 36.6789 22.0577 0
      vertex 17.4103 22.4182 0
      vertex 38.5384 22.6618 0
    endloop
  endfacet
  facet normal 0 0 -1
    outer loop
      vertex 0 30 0
      vertex 38.5384 22.6618 0
      vertex 17.4103 22.4182 0
    endloop
  endfacet
  facet normal 0 0 -1
    outer loop
      vertex 0 30 0
      vertex 17.4103 22.4182 0
      vertex 15.4898 22.7846 0
    endloop
  endfacet
  facet normal 0 0 -1
    outer loop
      vertex 0 30 0
      vertex 15.4898 22.7846 0
      vertex 13.5384 22.6618 0
    endloop
  endfacet
  facet normal 0 0 -1
    outer loop
      vertex 0 30 0
      vertex 7.26151 15.9776 0
      vertex 0 0 0
    endloop
  endfacet
  facet normal 0 0 -1
    outer loop
      vertex 40.4898 22.7846 0
      vertex 0 30 0
      vertex 80 30 0
    endloop
  endfacet
  facet normal 0 0 -1
    outer loop
      vertex 11.6789 22.0577 0
      vertex 0 30 0
      vertex 13.5384 22.6618 0
    endloop
  endfacet
  facet normal 0 0 -1
    outer loop
      vertex 10.0281 21.01 0
      vertex 0 30 0
      vertex 11.6789 22.0577 0
    endloop
  endfacet
  facet normal 0 0 -1
    outer loop
      vertex 8.68967 19.5847 0
      vertex 0 30 0
      vertex 10.0281 21.01 0
    endloop
  endfacet
  facet normal 0 0 -1
    outer loop
      vertex 7.74774 17.8714 0
      vertex 0 30 0
      vertex 8.68967 19.5847 0
    endloop
  endfacet
  facet normal 0 0 -1
    outer loop
      vertex 7.26151 15.9776 0
      vertex 0 30 0
      vertex 7.74774 17.8714 0
    endloop
  endfacet
  facet normal -1 0 0
    outer loop
      vertex 0 0 0
      vertex 0 30 2
      vertex 0 30 0
    endloop
  endfacet
  facet normal -1 -0 0
    outer loop
      vertex 0 30 2
      vertex 0 0 0
      vertex 0 0 2
    endloop
  endfacet
  facet normal 0 1 -0
    outer loop
      vertex 80 30 0
      vertex 0 30 2
      vertex 80 30 2
    endloop
  endfacet
  facet normal 0 1 0
    outer loop
      vertex 0 30 2
      vertex 80 30 0
      vertex 0 30 0
    endloop
  endfacet
  facet normal 0 -1 0
    outer loop
      vertex 0 0 0
      vertex 80 0 2
      vertex 0 0 2
    endloop
  endfacet
  facet normal 0 -1 -0
    outer loop
      vertex 80 0 2
      vertex 0 0 0
      vertex 80 0 0
    endloop
  endfacet
endsolid OpenSCAD_Model
